…
# Selecciona solo las columnas necesarias
data_filtered <- data_filtered %>%
  select(`494.0`, FECHA)  # Asegúrate de que `494.0` sea el nombre exacto de la columna

data_filtered <- data_filtered %>%
  mutate(`494.0` = ifelse(`494.0` == 0, 0.1, `494.0`))

# Muestra el resultado
print(data_filtered)
```

    ## # A tibble: 744 × 2
    ##    `494.0` FECHA              
    ##      <dbl> <dttm>             
    ##  1   0.1   2022-03-01 00:00:00
    ##  2   0.1   2022-03-01 01:00:00
    ##  3   0.1   2022-03-01 02:00:00
    ##  4   0.1   2022-03-01 03:00:00
    ##  5   0.1   2022-03-01 04:00:00
    ##  6   0.1   2022-03-01 05:00:00
    ##  7   0.636 2022-03-01 06:00:00
    ##  8   1.75  2022-03-01 07:00:00
    ##  9  16.4   2022-03-01 08:00:00
    ## 10  14.3   2022-03-01 09:00:00
    ## # ℹ 734 more rows
…
